<svg xmlns="http://www.w3.org/2000/svg" viewBox="0 0 129 129">
  <path d="M118.5 6.5c-2.3 0-4.1 1.8-4.1 4.1v24.3c-10.3-17.3-29-28.4-49.9-28.4-32 0-58 26-58 58.1s26 58 58 58 58-26 58-58c0-2.3-1.8-4.1-4.1-4.1s-4.1 1.8-4.1 4.1c0 27.5-22.4 49.9-49.9 49.9S14.6 92 14.6 64.5 37 14.6 64.5 14.6c19.7 0 37.3 11.5 45.3 29.1H81.1c-2.3 0-4.1 1.8-4.1 4.1s1.8 4.1 4.1 4.1h37.3c2.3 0 4.1-1.8 4.1-4.1V10.5c0-2.2-1.8-4-4-4z" fill="url(#gradient1)"/>
	<defs>
		<linearGradient id="gradient1">
        <stop offset="0%" stop-color="#ef473a"/>
        <stop offset="100%" stop-color="#cb2d3e"/>
      </linearGradient>
	</defs>
</svg>